{
  "results": [
    {
      "starts_on": "2016-12-13",
      "ends_on": null,
      "type": "Section",
      "uber_hierarchy": {
        "title": "36 | Title 36 | Parks, Forests, and Public Property",
        "subtitle": "",
        "chapter": "VIII |  Chapter VIII | Advisory Council on Historic Preservation",
        "subchapter": "",
        "part": "800 | Part 800 | Protection of Historic Properties",
        "subpart": "A | Subpart A | Purposes and Participants",
        "subject_group": "",
        "section": "800.2 | § 800.2 | Participants in the Section 106 process.",
        "appendix": ""
      },
      "full_text_excerpt": null,
      "score": 2.024467,
      "structure_index": 30206,
      "reserved": false,
      "removed": false,
      "change_types": [
        "effective",
        "initial"
      ]
    },
    {
      "starts_on": "2016-12-13",
      "ends_on": null,
      "type": "Section",
      "uber_hierarchy": {
        "title": "36 | Title 36 | Parks, Forests, and Public Property",
        "subtitle": "",
        "chapter": "VIII |  Chapter VIII | Advisory Council on Historic Preservation",
        "subchapter": "",
        "part": "800 | Part 800 | Protection of Historic Properties",
        "subpart": "B | Subpart B | The section 106 Process",
        "subject_group": "",
        "section": "800.11 | § 800.11 | Documentation standards.",
        "appendix": ""
      },
      "full_text_excerpt": null,
      "score": 2.024467,
      "structure_index": 30215,
      "reserved": false,
      "removed": false,
      "change_types": [
        "effective",
        "initial"
      ]
    },
    {
      "starts_on": "2016-12-13",
      "ends_on": null,
      "type": "Section",
      "uber_hierarchy": {
        "title": "36 | Title 36 | Parks, Forests, and Public Property",
        "subtitle": "",
        "chapter": "VIII |  Chapter VIII | Advisory Council on Historic Preservation",
        "subchapter": "",
        "part": "800 | Part 800 | Protection of Historic Properties",
        "subpart": "B | Subpart B | The section 106 Process",
        "subject_group": "",
        "section": "800.12 | § 800.12 | Emergency situations.",
        "appendix": ""
      },
      "full_text_excerpt": null,
      "score": 2.024467,
      "structure_index": 30206,
      "reserved": false,
      "removed": false,
      "change_types": [
        "effective",
        "initial"
      ]
    },
    {
      "starts_on": "2016-12-13",
      "ends_on": null,
      "type": "Section",
      "uber_hierarchy": {
        "title": "36 | Title 36 | Parks, Forests, and Public Property",
        "subtitle": "",
        "chapter": "VIII |  Chapter VIII | Advisory Council on Historic Preservation",
        "subchapter": "",
        "part": "800 | Part 800 | Protection of Historic Properties",
        "subpart": "B | Subpart B | The section 106 Process",
        "subject_group": "",
        "section": "800.3 | § 800.3 | Initiation of the section 106 process.",
        "appendix": ""
      },
      "full_text_excerpt": null,
      "score": 2.024467,
      "structure_index": 30197,
      "reserved": false,
      "removed": false,
      "change_types": [
        "effective",
        "initial"
      ]
    },
    {
      "starts_on": "2016-12-13",
      "ends_on": null,
      "type": "Section",
      "uber_hierarchy": {
        "title": "36 | Title 36 | Parks, Forests, and Public Property",
        "subtitle": "",
        "chapter": "VIII |  Chapter VIII | Advisory Council on Historic Preservation",
        "subchapter": "",
        "part": "800 | Part 800 | Protection of Historic Properties",
        "subpart": "B | Subpart B | The section 106 Process",
        "subject_group": "",
        "section": "800.9 | § 800.9 | Council review of section 106 compliance.",
        "appendix": ""
      },
      "full_text_excerpt": null,
      "score": 2.024467,
      "structure_index": 30213,
      "reserved": false,
      "removed": false,
      "change_types": [
        "effective",
        "initial"
      ]
    },
    {
      "starts_on": "2016-12-13",
      "ends_on": null,
      "type": "Section",
      "uber_hierarchy": {
        "title": "36 | Title 36 | Parks, Forests, and Public Property",
        "subtitle": "",
        "chapter": "VIII |  Chapter VIII | Advisory Council on Historic Preservation",
        "subchapter": "",
        "part": "801 | Part 801 | Historic Preservation Requirements of the Urban Development Action Grant Program",
        "subpart": "",
        "subject_group": "",
        "section": "801.6 | § 801.6 | Coordination with requirements under the National Environmental Policy Act (42 U.S.C. 4321 <em>et seq.</em>).",
        "appendix": ""
      },
      "full_text_excerpt": null,
      "score": 2.024467,
      "structure_index": 30217,
      "reserved": false,
      "removed": false,
      "change_types": [
        "effective",
        "initial"
      ]
    },
    {
      "starts_on": "2016-12-13",
      "ends_on": null,
      "type": "Section",
      "uber_hierarchy": {
        "title": "36 | Title 36 | Parks, Forests, and Public Property",
        "subtitle": "",
        "chapter": "VIII |  Chapter VIII | Advisory Council on Historic Preservation",
        "subchapter": "",
        "part": "801 | Part 801 | Historic Preservation Requirements of the Urban Development Action Grant Program",
        "subpart": "",
        "subject_group": "",
        "section": "801.7 | § 801.7 | Information requirements.",
        "appendix": ""
      },
      "full_text_excerpt": null,
      "score": 2.024467,
      "structure_index": 30218,
      "reserved": false,
      "removed": false,
      "change_types": [
        "effective",
        "initial"
      ]
    },
    {
      "starts_on": "2016-12-13",
      "ends_on": null,
      "type": "Section",
      "uber_hierarchy": {
        "title": "36 | Title 36 | Parks, Forests, and Public Property",
        "subtitle": "",
        "chapter": "VIII |  Chapter VIII | Advisory Council on Historic Preservation",
        "subchapter": "",
        "part": "810 | Part 810 | Freedom of Information Act Regulations",
        "subpart": "",
        "subject_group": "",
        "section": "810.5 | § 810.5 | Fees.",
        "appendix": ""
      },
      "full_text_excerpt": null,
      "score": 2.024467,
      "structure_index": 30243,
      "reserved": false,
      "removed": false,
      "change_types": [
        "effective",
        "initial"
      ]
    },
    {
      "starts_on": "2016-12-13",
      "ends_on": null,
      "type": "Section",
      "uber_hierarchy": {
        "title": "36 | Title 36 | Parks, Forests, and Public Property",
        "subtitle": "",
        "chapter": "VIII |  Chapter VIII | Advisory Council on Historic Preservation",
        "subchapter": "",
        "part": "812 | Part 812 | Enforcement of Nondiscrimination on the Basis of Handicap in Programs or Activities Conducted by the Advisory Council on Historic Preservation",
        "subpart": "",
        "subject_group": "",
        "section": "812.104-812.109 | §§ 812.104-812.109 | §§ 812.104-812.109 [Reserved]",
        "appendix": ""
      },
      "full_text_excerpt": null,
      "score": 2.024467,
      "structure_index": 30239,
      "reserved": true,
      "removed": false,
      "change_types": [
        "effective",
        "initial"
      ]
    },
    {
      "starts_on": "2016-12-13",
      "ends_on": null,
      "type": "Section",
      "uber_hierarchy": {
        "title": "36 | Title 36 | Parks, Forests, and Public Property",
        "subtitle": "",
        "chapter": "VIII |  Chapter VIII | Advisory Council on Historic Preservation",
        "subchapter": "",
        "part": "812 | Part 812 | Enforcement of Nondiscrimination on the Basis of Handicap in Programs or Activities Conducted by the Advisory Council on Historic Preservation",
        "subpart": "",
        "subject_group": "",
        "section": "812.111 | § 812.111 | Notice.",
        "appendix": ""
      },
      "full_text_excerpt": null,
      "score": 2.024467,
      "structure_index": 30241,
      "reserved": false,
      "removed": false,
      "change_types": [
        "effective",
        "initial"
      ]
    },
    {
      "starts_on": "2016-12-13",
      "ends_on": null,
      "type": "Section",
      "uber_hierarchy": {
        "title": "36 | Title 36 | Parks, Forests, and Public Property",
        "subtitle": "",
        "chapter": "VIII |  Chapter VIII | Advisory Council on Historic Preservation",
        "subchapter": "",
        "part": "812 | Part 812 | Enforcement of Nondiscrimination on the Basis of Handicap in Programs or Activities Conducted by the Advisory Council on Historic Preservation",
        "subpart": "",
        "subject_group": "",
        "section": "812.130 | § 812.130 | General prohibitions against discrimination.",
        "appendix": ""
      },
      "full_text_excerpt": null,
      "score": 2.024467,
      "structure_index": 30253,
      "reserved": false,
      "removed": false,
      "change_types": [
        "effective",
        "initial"
      ]
    },
    {
      "starts_on": "2016-12-13",
      "ends_on": null,
      "type": "Section",
      "uber_hierarchy": {
        "title": "36 | Title 36 | Parks, Forests, and Public Property",
        "subtitle": "",
        "chapter": "VIII |  Chapter VIII | Advisory Council on Historic Preservation",
        "subchapter": "",
        "part": "812 | Part 812 | Enforcement of Nondiscrimination on the Basis of Handicap in Programs or Activities Conducted by the Advisory Council on Historic Preservation",
        "subpart": "",
        "subject_group": "",
        "section": "812.149 | § 812.149 | Program accessibility: Discrimination prohibited.",
        "appendix": ""
      },
      "full_text_excerpt": null,
      "score": 2.024467,
      "structure_index": 30247,
      "reserved": false,
      "removed": false,
      "change_types": [
        "effective",
        "initial"
      ]
    },
    {
      "starts_on": "2016-12-13",
      "ends_on": null,
      "type": "Section",
      "uber_hierarchy": {
        "title": "36 | Title 36 | Parks, Forests, and Public Property",
        "subtitle": "",
        "chapter": "VIII |  Chapter VIII | Advisory Council on Historic Preservation",
        "subchapter": "",
        "part": "812 | Part 812 | Enforcement of Nondiscrimination on the Basis of Handicap in Programs or Activities Conducted by the Advisory Council on Historic Preservation",
        "subpart": "",
        "subject_group": "",
        "section": "812.170 | § 812.170 | Compliance procedures.",
        "appendix": ""
      },
      "full_text_excerpt": null,
      "score": 2.024467,
      "structure_index": 30263,
      "reserved": false,
      "removed": false,
      "change_types": [
        "effective",
        "initial"
      ]
    },
    {
      "starts_on": "2016-12-13",
      "ends_on": null,
      "type": "Appendix",
      "uber_hierarchy": {
        "title": "36 | Title 36 | Parks, Forests, and Public Property",
        "subtitle": "",
        "chapter": "VIII |  Chapter VIII | Advisory Council on Historic Preservation",
        "subchapter": "",
        "part": "800 | Part 800 | Protection of Historic Properties",
        "subpart": "",
        "subject_group": "",
        "section": "",
        "appendix": "Appendix A to Part 800 | Criteria for Council Involvement in Reviewing Individual section 106 Cases\n"
      },
      "full_text_excerpt": null,
      "score": 2.0237794,
      "structure_index": 30221,
      "reserved": false,
      "removed": false,
      "change_types": [
        "effective",
        "initial"
      ]
    },
    {
      "starts_on": "2016-12-13",
      "ends_on": null,
      "type": "Section",
      "uber_hierarchy": {
        "title": "36 | Title 36 | Parks, Forests, and Public Property",
        "subtitle": "",
        "chapter": "VIII |  Chapter VIII | Advisory Council on Historic Preservation",
        "subchapter": "",
        "part": "800 | Part 800 | Protection of Historic Properties",
        "subpart": "B | Subpart B | The section 106 Process",
        "subject_group": "",
        "section": "800.10 | § 800.10 | Special requirements for protecting National Historic Landmarks.",
        "appendix": ""
      },
      "full_text_excerpt": null,
      "score": 2.0237794,
      "structure_index": 30204,
      "reserved": false,
      "removed": false,
      "change_types": [
        "effective",
        "initial"
      ]
    },
    {
      "starts_on": "2016-12-13",
      "ends_on": null,
      "type": "Section",
      "uber_hierarchy": {
        "title": "36 | Title 36 | Parks, Forests, and Public Property",
        "subtitle": "",
        "chapter": "VIII |  Chapter VIII | Advisory Council on Historic Preservation",
        "subchapter": "",
        "part": "800 | Part 800 | Protection of Historic Properties",
        "subpart": "B | Subpart B | The section 106 Process",
        "subject_group": "",
        "section": "800.8 | § 800.8 | Coordination With the National Environmental Policy Act.",
        "appendix": ""
      },
      "full_text_excerpt": null,
      "score": 2.0237794,
      "structure_index": 30212,
      "reserved": false,
      "removed": false,
      "change_types": [
        "effective",
        "initial"
      ]
    },
    {
      "starts_on": "2016-12-13",
      "ends_on": null,
      "type": "Section",
      "uber_hierarchy": {
        "title": "36 | Title 36 | Parks, Forests, and Public Property",
        "subtitle": "",
        "chapter": "VIII |  Chapter VIII | Advisory Council on Historic Preservation",
        "subchapter": "",
        "part": "800 | Part 800 | Protection of Historic Properties",
        "subpart": "C | Subpart C | Program Alternatives",
        "subject_group": "",
        "section": "800.16 | § 800.16 | Definitions.",
        "appendix": ""
      },
      "full_text_excerpt": null,
      "score": 2.0237794,
      "structure_index": 30210,
      "reserved": false,
      "removed": false,
      "change_types": [
        "effective",
        "initial"
      ]
    },
    {
      "starts_on": "2016-12-13",
      "ends_on": null,
      "type": "Section",
      "uber_hierarchy": {
        "title": "36 | Title 36 | Parks, Forests, and Public Property",
        "subtitle": "",
        "chapter": "VIII |  Chapter VIII | Advisory Council on Historic Preservation",
        "subchapter": "",
        "part": "801 | Part 801 | Historic Preservation Requirements of the Urban Development Action Grant Program",
        "subpart": "",
        "subject_group": "",
        "section": "801.2 | § 801.2 | Definitions.",
        "appendix": ""
      },
      "full_text_excerpt": null,
      "score": 2.0237794,
      "structure_index": 30213,
      "reserved": false,
      "removed": false,
      "change_types": [
        "effective",
        "initial"
      ]
    },
    {
      "starts_on": "2016-12-13",
      "ends_on": null,
      "type": "Section",
      "uber_hierarchy": {
        "title": "36 | Title 36 | Parks, Forests, and Public Property",
        "subtitle": "",
        "chapter": "VIII |  Chapter VIII | Advisory Council on Historic Preservation",
        "subchapter": "",
        "part": "810 | Part 810 | Freedom of Information Act Regulations",
        "subpart": "",
        "subject_group": "",
        "section": "810.1 | § 810.1 | Purpose and scope.",
        "appendix": ""
      },
      "full_text_excerpt": null,
      "score": 2.0237794,
      "structure_index": 30229,
      "reserved": false,
      "removed": false,
      "change_types": [
        "effective",
        "initial"
      ]
    },
    {
      "starts_on": "2016-12-13",
      "ends_on": null,
      "type": "Section",
      "uber_hierarchy": {
        "title": "36 | Title 36 | Parks, Forests, and Public Property",
        "subtitle": "",
        "chapter": "VIII |  Chapter VIII | Advisory Council on Historic Preservation",
        "subchapter": "",
        "part": "810 | Part 810 | Freedom of Information Act Regulations",
        "subpart": "",
        "subject_group": "",
        "section": "810.2 | § 810.2 | Procedure for requesting information.",
        "appendix": ""
      },
      "full_text_excerpt": null,
      "score": 2.0237794,
      "structure_index": 30230,
      "reserved": false,
      "removed": false,
      "change_types": [
        "effective",
        "initial"
      ]
    }
  ],
  "meta": {
    "current_page": 1,
    "total_pages": 3,
    "total_count": 60,
    "max_score": 2.024467,
    "description": "Changes from Advisory Council on Historic Preservation"
  }
}